{
  "id": "https://directory.doabooks.org/handle/20.500.12345/12345",
  "name": "Test resource",
  "image": "https://directory.doabooks.org/rest/bitstreams/12345678-fd34-4d8f-a20b-ff16835a29fc/retrieve"
}