{
  "items": [
    {
      "id": 12345678,
      "node_id": "xxxxx=",
      "name": "GitHubTestOER",
      "full_name": "test/GitHubTestOER",
      "private": false,
      "owner": {
        "login": "test",
        "id": 987654321,
        "node_id": "xxxxxxx",
        "avatar_url": "https://avatars.githubusercontent.com/u/xxxxx?v=4",
        "gravatar_id": "",
        "url": "https://api.github.com/users/test",
        "html_url": "https://github.com/test",
        "followers_url": "https://api.github.com/users/test/followers",
        "following_url": "https://api.github.com/users/test/following{/other_user}",
        "gists_url": "https://api.github.com/users/test/gists{/gist_id}",
        "starred_url": "https://api.github.com/users/test/starred{/owner}{/repo}",
        "subscriptions_url": "https://api.github.com/users/test/subscriptions",
        "organizations_url": "https://api.github.com/users/test/orgs",
        "repos_url": "https://api.github.com/users/test/repos",
        "events_url": "https://api.github.com/users/test/events{/privacy}",
        "received_events_url": "https://api.github.com/users/test/received_events",
        "type": "User",
        "site_admin": false
      },
      "html_url": "https://github.com/test/GitHubTestOER",
      "description": null,
      "fork": false,
      "url": "https://api.github.com/repos/test/GitHubTestOER",
      "forks_url": "https://api.github.com/repos/test/GitHubTestOER/forks",
      "keys_url": "https://api.github.com/repos/test/GitHubTestOER/keys{/key_id}",
      "collaborators_url": "https://api.github.com/repos/test/GitHubTestOER/collaborators{/collaborator}",
      "teams_url": "https://api.github.com/repos/test/GitHubTestOER/teams",
      "hooks_url": "https://api.github.com/repos/test/GitHubTestOER/hooks",
      "issue_events_url": "https://api.github.com/repos/test/GitHubTestOER/issues/events{/number}",
      "events_url": "https://api.github.com/repos/test/GitHubTestOER/events",
      "assignees_url": "https://api.github.com/repos/test/GitHubTestOER/assignees{/user}",
      "branches_url": "https://api.github.com/repos/test/GitHubTestOER/branches{/branch}",
      "tags_url": "https://api.github.com/repos/test/GitHubTestOER/tags",
      "blobs_url": "https://api.github.com/repos/test/GitHubTestOER/git/blobs{/sha}",
      "git_tags_url": "https://api.github.com/repos/test/GitHubTestOER/git/tags{/sha}",
      "git_refs_url": "https://api.github.com/repos/test/GitHubTestOER/git/refs{/sha}",
      "trees_url": "https://api.github.com/repos/test/GitHubTestOER/git/trees{/sha}",
      "statuses_url": "https://api.github.com/repos/test/GitHubTestOER/statuses/{sha}",
      "languages_url": "https://api.github.com/repos/test/GitHubTestOER/languages",
      "stargazers_url": "https://api.github.com/repos/test/GitHubTestOER/stargazers",
      "contributors_url": "https://api.github.com/repos/test/GitHubTestOER/contributors",
      "subscribers_url": "https://api.github.com/repos/test/GitHubTestOER/subscribers",
      "subscription_url": "https://api.github.com/repos/test/GitHubTestOER/subscription",
      "commits_url": "https://api.github.com/repos/test/GitHubTestOER/commits{/sha}",
      "git_commits_url": "https://api.github.com/repos/test/GitHubTestOER/git/commits{/sha}",
      "comments_url": "https://api.github.com/repos/test/GitHubTestOER/comments{/number}",
      "issue_comment_url": "https://api.github.com/repos/test/GitHubTestOER/issues/comments{/number}",
      "contents_url": "https://api.github.com/repos/test/GitHubTestOER/contents/{+path}",
      "compare_url": "https://api.github.com/repos/test/GitHubTestOER/compare/{base}...{head}",
      "merges_url": "https://api.github.com/repos/test/GitHubTestOER/merges",
      "archive_url": "https://api.github.com/repos/test/GitHubTestOER/{archive_format}{/ref}",
      "downloads_url": "https://api.github.com/repos/test/GitHubTestOER/downloads",
      "issues_url": "https://api.github.com/repos/test/GitHubTestOER/issues{/number}",
      "pulls_url": "https://api.github.com/repos/test/GitHubTestOER/pulls{/number}",
      "milestones_url": "https://api.github.com/repos/test/GitHubTestOER/milestones{/number}",
      "notifications_url": "https://api.github.com/repos/test/GitHubTestOER/notifications{?since,all,participating}",
      "labels_url": "https://api.github.com/repos/test/GitHubTestOER/labels{/name}",
      "releases_url": "https://api.github.com/repos/test/GitHubTestOER/releases{/id}",
      "deployments_url": "https://api.github.com/repos/test/GitHubTestOER/deployments",
      "created_at": "2020-09-09T14:03:39Z",
      "updated_at": "2021-06-28T09:28:31Z",
      "pushed_at": "2021-06-28T09:28:28Z",
      "git_url": "git://github.com/test/GitHubTestOER.git",
      "ssh_url": "git@github.com:test/GitHubTestOER.git",
      "clone_url": "https://github.com/test/GitHubTestOER.git",
      "svn_url": "https://github.com/test/GitHubTestOER",
      "homepage": "",
      "size": 12345,
      "stargazers_count": 0,
      "watchers_count": 0,
      "language": "CSS",
      "has_issues": true,
      "has_projects": true,
      "has_downloads": true,
      "has_wiki": true,
      "has_pages": false,
      "forks_count": 0,
      "mirror_url": null,
      "archived": false,
      "disabled": false,
      "open_issues_count": 0,
      "license": null,
      "topics": [
        "open-educational-resources"
      ],
      "forks": 0,
      "open_issues": 0,
      "watchers": 0,
      "default_branch": "master",
      "score": 1.0
    }
  ]
}
