{
  "id": "https://github.com/test/GitHubTestOER",
  "name": "OER-Beispiel",
  "image": "http://placehold.it/100x100",
  "creator": [
    {"name": "Max Mustermann", "type":  "Person"}
  ],
  "mainEntityOfPage": [
    {
      "id": "https://github.com/test/GitHubTestOER",
      "provider": {
        "name": "GitHub",
        "type": "Service",
        "id": "https://github.com"
      }
    }
  ]
}
