{
  "nodes": [
    {
      "content": {
        "url": "https://some.url",
        "hash": "-1254612435",
        "version": "1.8"
      },
      "ref": {
        "repo": "repo",
        "id": "someid",
        "archived": false,
        "isHomeRepo": true
      },
      "license": {
        "icon": "https://openedu-rlp.de/edu-sharing/ccimages/licenses/cc-by.svg",
        "url": "https://creativecommons.org/licenses/by/4.0/deed.en"
      },
      "type": "ccm:io",
      "name": "Dateiname",
      "title": "Titel",
      "createdAt": "2019-10-17T15:41:00Z",
      "modifiedAt": "2020-10-01T18:32:19Z",
      "downloadUrl": "https://some.url",
      "properties": {
        "ccm:lifecyclecontributer_authorVCARD_ORG": [
          ""
        ],
        "ccm:metadatacontributer_creatorVCARD_ORG": [
          ""
        ],
        "ccm:university_DISPLAYNAME": [
          "Uni Irgendwo"
        ],
        "ccm:lifecyclecontributer_editorVCARD_ORG": [
          ""
        ],
        "virtual:licenseurl": [
          "https://creativecommons.org/licenses/by/4.0/deed.de"
        ],
        "cclom:title": [
          "Titel"
        ],
        "ccm:university": [
          "uni-irgendwo.de"
        ],
        "ccm:topic_DISPLAYNAME": [
          "Schlüsselqualifikationen"
        ],
        "cclom:general_description": [
          "Beschreibung"
        ],
        "ccm:taxonid": [
          "https://w3id.org/kim/hochschulfaechersystematik/n71",
          "https://w3id.org/kim/hochschulfaechersystematik/n079"
        ],
        "ccm:classification_keyword": [
          "Open Data",
          "Open Access"
        ],
        "ccm:topic": [
          "900002"
        ],
        "ccm:lifecyclecontributer_author": [
          "BEGIN:VCARD\nN:A;A\nX-ES-LOM-CONTRIBUTE-DATE:\nFN:A A\nVERSION:3.0\nEND:VCARD",
          "BEGIN:VCARD\nN:B;B\nX-ES-LOM-CONTRIBUTE-DATE:\nFN:B B\nVERSION:3.0\nEND:VCARD"
        ],
        "ccm:author_freetext": [
          "Dr. C C"
        ],
        "cclom:general_language": [
          "de", "unknown"
        ],
        "cclom:general_language_DISPLAYNAME": [
          "Deutsch"
        ],
        "ccm:search_context": [
          "oer"
        ],
        "cclom:general_keyword": [
          "Open Science",
          "Preregistration",
          "Präregistrierung"
        ]
      },
      "preview": {
        "isIcon": false,
        "isGenerated": true,
        "url": "https://some.url",
        "width": null,
        "height": null
      }
    },
    {
      "content": {
        "url": "https://some.url",
        "hash": "-1254612435",
        "version": "1.8"
      },
      "ref": {
        "repo": "repo",
        "id": "someid2",
        "archived": false,
        "isHomeRepo": true
      },
      "license": {
        "icon": "https://openedu-rlp.de/edu-sharing/ccimages/licenses/cc-by.svg",
        "url": "https://creativecommons.org/licenses/by/4.0/deed.en"
      },
      "type": "ccm:io",
      "name": "Dateiname",
      "title": "Titel",
      "createdAt": "2019-10-17T15:41:00Z",
      "modifiedAt": "2020-10-01T18:32:19Z",
      "downloadUrl": "https://some.url",
      "properties": {
        "ccm:lifecyclecontributer_authorVCARD_ORG": [
          ""
        ],
        "ccm:metadatacontributer_creatorVCARD_ORG": [
          ""
        ],
        "ccm:university_DISPLAYNAME": [
          "Uni Irgendwo"
        ],
        "ccm:lifecyclecontributer_editorVCARD_ORG": [
          ""
        ],
        "virtual:licenseurl": [
          "https://creativecommons.org/licenses/by/4.0/deed.de"
        ],
        "cclom:title": [
          "Titel"
        ],
        "ccm:university": [
          "uni-irgendwo.de"
        ],
        "ccm:topic_DISPLAYNAME": [
          "Schlüsselqualifikationen"
        ],
        "cclom:general_description": [
          "Beschreibung"
        ],
        "ccm:taxonid": [
        ],
        "ccm:classification_keyword": [
          "Open Data",
          "Open Access"
        ],
        "ccm:topic": [
          "900002"
        ],
        "ccm:lifecyclecontributer_author": [
          "BEGIN:VCARD\nN:A;A\nX-ES-LOM-CONTRIBUTE-DATE:\nFN:A A\nVERSION:3.0\nEND:VCARD",
          "BEGIN:VCARD\nN:B;B\nX-ES-LOM-CONTRIBUTE-DATE:\nFN:B B\nVERSION:3.0\nEND:VCARD"
        ],
        "ccm:author_freetext": [
          "Dr. C C"
        ],
        "cclom:general_language": [
          "de", "unknown"
        ],
        "cclom:general_language_DISPLAYNAME": [
          "Deutsch"
        ],
        "ccm:search_context": [
          "oer"
        ],
        "cclom:general_keyword": [
          "Open Science",
          "Preregistration",
          "Präregistrierung"
        ]
      },
      "preview": {
        "isIcon": false,
        "isGenerated": true,
        "url": "https://some.url",
        "width": null,
        "height": null
      }
    }
  ],
  "pagination": {
    "total": 1,
    "from": 0,
    "count": 1
  },
  "facettes": null,
  "ignored": null
}
